[
    {
        "boundingBox":"178,163,247,67",
        "lines":[{
                    "boundingBox":"178,163,247,29",
                    "words":[{
                                "boundingBox":"178,163,247,29",
                                "text":"ANdR0idNub"
                            }]
                },
                {
                    "boundingBox":"259,215,81,15",
                    "words":[{
                                "boundingBox":"259,215,28,15",
                                "text":"No"
                            },
                            {
                                "boundingBox":"295,215,45,15",
                                "text":"ClaN"
                            }]
                }]
    }
]
